<?xml version="1.0" standalone="yes"?>
<MyDataSet>
  <Table1>
    <Field>Connection String</Field>
    <Value>ToKgLIdYUlixvVTKl5Z7Ov5VxyqgLUEvNo4sf6UvZEIdb68N8G4bD0vD2beCbU0zrTt14hdbCZjWp1JHquyggOrQbIwmefWufhgN12cj4yvElALXyXfQ+xOu/Y54eHFW</Value>
  </Table1>
</MyDataSet>