^E:\MOHANIR\SETTLE\BAZARSETTLEMENT-13931225\BAZARSETTLEMENT\SETTLEMENT SOLUTION 2009\SETTLEMENTPROJECT\CLASSES\PARENT FORM DIALOG.RESX
^E:\MOHANIR\SETTLE\BAZARSETTLEMENT-13931225\BAZARSETTLEMENT\SETTLEMENT SOLUTION 2009\SETTLEMENTPROJECT\FORMS\HELP\FRMDETAILMESSAGEBOX.RESX
^E:\MOHANIR\SETTLE\BAZARSETTLEMENT-13931225\BAZARSETTLEMENT\SETTLEMENT SOLUTION 2009\SETTLEMENTPROJECT\FORMS\MANAGEMENTBILL\BILLEXECSTEPSB.RESX
^E:\MOHANIR\SETTLE\BAZARSETTLEMENT-13931225\BAZARSETTLEMENT\SETTLEMENT SOLUTION 2009\SETTLEMENTPROJECT\FORMS\MANAGEMENTBILL\BILLEXECSTEPT.RESX
^E:\MOHANIR\SETTLE\BAZARSETTLEMENT-13931225\BAZARSETTLEMENT\SETTLEMENT SOLUTION 2009\SETTLEMENTPROJECT\FORMS\MANAGEMENTBILL\PRINTING.RESX
^E:\MOHANIR\SETTLE\BAZARSETTLEMENT-13931225\BAZARSETTLEMENT\SETTLEMENT SOLUTION 2009\SETTLEMENTPROJECT\FORMS\MANAGEMENT\FRMBILLNUMBER.RESX
^E:\MOHANIR\SETTLE\BAZARSETTLEMENT-13931225\BAZARSETTLEMENT\SETTLEMENT SOLUTION 2009\SETTLEMENTPROJECT\FORMS\MANAGEMENT\MANAGEPARAMETERS\CLASSES\PARAMSTRUCTURE.RESX
^E:\MOHANIR\SETTLE\BAZARSETTLEMENT-13931225\BAZARSETTLEMENT\SETTLEMENT SOLUTION 2009\SETTLEMENTPROJECT\FORMS\MANAGEMENT\BILLITEMSSETTINGS\BILLITEMSET.RESX
^E:\MOHANIR\SETTLE\BAZARSETTLEMENT-13931225\BAZARSETTLEMENT\SETTLEMENT SOLUTION 2009\SETTLEMENTPROJECT\FORMS\MANAGEMENT\BILLITEMSSETTINGS\CHOOSEBILLITEMPARAMETER.RESX
^E:\MOHANIR\SETTLE\BAZARSETTLEMENT-13931225\BAZARSETTLEMENT\SETTLEMENT SOLUTION 2009\SETTLEMENTPROJECT\FORMS\MANAGEMENT\MANAGEPARAMETERS\CLASSES\CONDITIONTREECONTROL.RESX
^E:\MOHANIR\SETTLE\BAZARSETTLEMENT-13931225\BAZARSETTLEMENT\SETTLEMENT SOLUTION 2009\SETTLEMENTPROJECT\FORMS\MANAGEMENT\MANAGEPARAMETERS\PARAMETERSC\MODIFYPARAMETERSC.RESX
^E:\MOHANIR\SETTLE\BAZARSETTLEMENT-13931225\BAZARSETTLEMENT\SETTLEMENT SOLUTION 2009\SETTLEMENTPROJECT\FORMS\MANAGEMENT\MANAGEPARAMETERS\PARAMETERSC\NEWPARAMETERC.RESX
^E:\MOHANIR\SETTLE\BAZARSETTLEMENT-13931225\BAZARSETTLEMENT\SETTLEMENT SOLUTION 2009\SETTLEMENTPROJECT\FORMS\MANAGEMENT\MANAGEPARAMETERS\CLASSES\MANAGENODES\CONDITIONNODE.RESX
^E:\MOHANIR\SETTLE\BAZARSETTLEMENT-13931225\BAZARSETTLEMENT\SETTLEMENT SOLUTION 2009\SETTLEMENTPROJECT\FORMS\MANAGEMENT\MANAGEPARAMETERS\CLASSES\MANAGENODES\RESULTNODE.RESX
^E:\MOHANIR\SETTLE\BAZARSETTLEMENT-13931225\BAZARSETTLEMENT\SETTLEMENT SOLUTION 2009\SETTLEMENTPROJECT\FORMS\MANAGEMENT\MANAGEPARAMETERS\PARAMETERSC\PARAMETERSC.RESX
^E:\MOHANIR\SETTLE\BAZARSETTLEMENT-13931225\BAZARSETTLEMENT\SETTLEMENT SOLUTION 2009\SETTLEMENTPROJECT\FORMS\START\FRMMAINFORM.RESX
^E:\MOHANIR\SETTLE\BAZARSETTLEMENT-13931225\BAZARSETTLEMENT\SETTLEMENT SOLUTION 2009\SETTLEMENTPROJECT\FORMS\START\USERSANDGROUPS\DEFINEUSER.RESX
^E:\MOHANIR\SETTLE\BAZARSETTLEMENT-13931225\BAZARSETTLEMENT\SETTLEMENT SOLUTION 2009\SETTLEMENTPROJECT\FORMS\START\USERSANDGROUPS\USERSGROUPS.RESX
^E:\MOHANIR\SETTLE\BAZARSETTLEMENT-13931225\BAZARSETTLEMENT\SETTLEMENT SOLUTION 2009\SETTLEMENTPROJECT\FORMS\START\CHANGEPASSWORD.RESX
^E:\MOHANIR\SETTLE\BAZARSETTLEMENT-13931225\BAZARSETTLEMENT\SETTLEMENT SOLUTION 2009\SETTLEMENTPROJECT\FORMS\START\CONNECTIONDEFINE\CONNECTIONDEFINEDISP.RESX
^E:\MOHANIR\SETTLE\BAZARSETTLEMENT-13931225\BAZARSETTLEMENT\SETTLEMENT SOLUTION 2009\SETTLEMENTPROJECT\FORMS\START\CONNECTIONDEFINE\CONNECTIONDEFINE.RESX
^E:\MOHANIR\SETTLE\BAZARSETTLEMENT-13931225\BAZARSETTLEMENT\SETTLEMENT SOLUTION 2009\SETTLEMENTPROJECT\FORMS\START\DBCONNECTION.RESX
C:\WINDOWS\MICROSOFT.NET\FRAMEWORK64\V2.0.50727\MSCORRC.DLL
E:\MOHANIR\SETTLE\BAZARSETTLEMENT-13931225\BAZARSETTLEMENT\SETTLEMENT SOLUTION 2009\DEVCOMPONENTS.DOTNETBAR2.DLL
^E:\MOHANIR\SETTLE\BAZARSETTLEMENT-13931225\BAZARSETTLEMENT\SETTLEMENT SOLUTION 2009\SETTLEMENTPROJECT\FORMS\MANAGEMENT\MANAGEPARAMETERS\PARAMETERS\MODIFYPARAMETERS.RESX
^E:\MOHANIR\SETTLE\BAZARSETTLEMENT-13931225\BAZARSETTLEMENT\SETTLEMENT SOLUTION 2009\SETTLEMENTPROJECT\FORMS\MANAGEMENT\MANAGEPARAMETERS\PARAMETERS\NEWPARAMETER.RESX
^E:\MOHANIR\SETTLE\BAZARSETTLEMENT-13931225\BAZARSETTLEMENT\SETTLEMENT SOLUTION 2009\SETTLEMENTPROJECT\FORMS\MANAGEMENT\MANAGEPARAMETERS\PARAMETERS\PARAMETERS.RESX
^E:\MOHANIR\SETTLE\BAZARSETTLEMENT-13931225\BAZARSETTLEMENT\SETTLEMENT SOLUTION 2009\SETTLEMENTPROJECT\FORMS\MANAGEMENT\MANAGEPARAMETERS\CLASSES\TESTPARAMETERS.RESX
^E:\MOHANIR\SETTLE\BAZARSETTLEMENT-13931225\BAZARSETTLEMENT\SETTLEMENT SOLUTION 2009\SETTLEMENTPROJECT\FORMS\HELP\ABOUT.RESX
^E:\MOHANIR\SETTLE\BAZARSETTLEMENT-13931225\BAZARSETTLEMENT\SETTLEMENT SOLUTION 2009\SETTLEMENTPROJECT\FORMS\START\SPLASH.RESX
^E:\MOHANIR\SETTLE\BAZARSETTLEMENT-13931225\BAZARSETTLEMENT\SETTLEMENT SOLUTION 2009\SETTLEMENTPROJECT\FORMS\START\VERSION.RESX
^E:\MOHANIR\SETTLE\BAZARSETTLEMENT-13931225\BAZARSETTLEMENT\SETTLEMENT SOLUTION 2009\SETTLEMENTPROJECT\PROPERTIES\RESOURCES.RESX
E:\MOHANIR\SETTLE\BAZARSETTLEMENT-13931225\BAZARSETTLEMENT\SETTLEMENT SOLUTION 2009\SETTLEMENTPROJECT\RESOURCES\REDO.PNG
E:\MOHANIR\SETTLE\BAZARSETTLEMENT-13931225\BAZARSETTLEMENT\SETTLEMENT SOLUTION 2009\SETTLEMENTPROJECT\RESOURCES\ADMINISTRATIVE.ICO
E:\MOHANIR\SETTLE\BAZARSETTLEMENT-13931225\BAZARSETTLEMENT\SETTLEMENT SOLUTION 2009\SETTLEMENTPROJECT\RESOURCES\WEB.ICO
E:\MOHANIR\SETTLE\BAZARSETTLEMENT-13931225\BAZARSETTLEMENT\SETTLEMENT SOLUTION 2009\SETTLEMENTPROJECT\RESOURCES\PIGGY BANK.ICO
E:\MOHANIR\SETTLE\BAZARSETTLEMENT-13931225\BAZARSETTLEMENT\SETTLEMENT SOLUTION 2009\SETTLEMENTPROJECT\RESOURCES\BUTTON - LOGOFF.PNG
E:\MOHANIR\SETTLE\BAZARSETTLEMENT-13931225\BAZARSETTLEMENT\SETTLEMENT SOLUTION 2009\SETTLEMENTPROJECT\RESOURCES\ADMINISTRATIVETOOLS.ICO
E:\MOHANIR\SETTLE\BAZARSETTLEMENT-13931225\BAZARSETTLEMENT\SETTLEMENT SOLUTION 2009\SETTLEMENTPROJECT\RESOURCES\DOWNLOADS.ICO
E:\MOHANIR\SETTLE\BAZARSETTLEMENT-13931225\BAZARSETTLEMENT\SETTLEMENT SOLUTION 2009\SETTLEMENTPROJECT\RESOURCES\TIME & DATE.ICO
E:\MOHANIR\SETTLE\BAZARSETTLEMENT-13931225\BAZARSETTLEMENT\SETTLEMENT SOLUTION 2009\SETTLEMENTPROJECT\RESOURCES\PRINTER SMALL PRINTING.ICO
E:\MOHANIR\SETTLE\BAZARSETTLEMENT-13931225\BAZARSETTLEMENT\SETTLEMENT SOLUTION 2009\SETTLEMENTPROJECT\RESOURCES\PAYMENT1.ICO
E:\MOHANIR\SETTLE\BAZARSETTLEMENT-13931225\BAZARSETTLEMENT\SETTLEMENT SOLUTION 2009\SETTLEMENTPROJECT\RESOURCES\CONNECT.ICO
E:\MOHANIR\SETTLE\BAZARSETTLEMENT-13931225\BAZARSETTLEMENT\SETTLEMENT SOLUTION 2009\SETTLEMENTPROJECT\RESOURCES\UNDO.PNG
E:\MOHANIR\SETTLE\BAZARSETTLEMENT-13931225\BAZARSETTLEMENT\SETTLEMENT SOLUTION 2009\SETTLEMENTPROJECT\RESOURCES\BLANK.ICO
E:\MOHANIR\SETTLE\BAZARSETTLEMENT-13931225\BAZARSETTLEMENT\SETTLEMENT SOLUTION 2009\SETTLEMENTPROJECT\RESOURCES\CURSORXP.PNG
E:\MOHANIR\SETTLE\BAZARSETTLEMENT-13931225\BAZARSETTLEMENT\SETTLEMENT SOLUTION 2009\SETTLEMENTPROJECT\RESOURCES\FABVORITES.ICO
E:\MOHANIR\SETTLE\BAZARSETTLEMENT-13931225\BAZARSETTLEMENT\SETTLEMENT SOLUTION 2009\SETTLEMENTPROJECT\RESOURCES\DIALUP.ICO
E:\MOHANIR\SETTLE\BAZARSETTLEMENT-13931225\BAZARSETTLEMENT\SETTLEMENT SOLUTION 2009\SETTLEMENTPROJECT\RESOURCES\GREEN DOLLAR.ICO
E:\MOHANIR\SETTLE\BAZARSETTLEMENT-13931225\BAZARSETTLEMENT\SETTLEMENT SOLUTION 2009\SETTLEMENTPROJECT\RESOURCES\SECURITY ORANGE.ICO
E:\MOHANIR\SETTLE\BAZARSETTLEMENT-13931225\BAZARSETTLEMENT\SETTLEMENT SOLUTION 2009\SETTLEMENTPROJECT\RESOURCES\SYSTEM.ICO
E:\MOHANIR\SETTLE\BAZARSETTLEMENT-13931225\BAZARSETTLEMENT\SETTLEMENT SOLUTION 2009\SETTLEMENTPROJECT\RESOURCES\REDO1.PNG
E:\MOHANIR\SETTLE\BAZARSETTLEMENT-13931225\BAZARSETTLEMENT\SETTLEMENT SOLUTION 2009\SETTLEMENTPROJECT\RESOURCES\PAYMENT.ICO
E:\MOHANIR\SETTLE\BAZARSETTLEMENT-13931225\BAZARSETTLEMENT\SETTLEMENT SOLUTION 2009\SETTLEMENTPROJECT\RESOURCES\AERO-SOFT.ICO
E:\MOHANIR\SETTLE\BAZARSETTLEMENT-13931225\BAZARSETTLEMENT\SETTLEMENT SOLUTION 2009\SETTLEMENTPROJECT\RESOURCES\AQUA-SOFT.ICO
E:\MOHANIR\SETTLE\BAZARSETTLEMENT-13931225\BAZARSETTLEMENT\SETTLEMENT SOLUTION 2009\SETTLEMENTPROJECT\RESOURCES\BURN ALTERNATIVE.ICO
E:\MOHANIR\SETTLE\BAZARSETTLEMENT-13931225\BAZARSETTLEMENT\SETTLEMENT SOLUTION 2009\SETTLEMENTPROJECT\RESOURCES\PUBLIC.ICO
E:\MOHANIR\SETTLE\BAZARSETTLEMENT-13931225\BAZARSETTLEMENT\SETTLEMENT SOLUTION 2009\SETTLEMENTPROJECT\RESOURCES\BATTERY.ICO
E:\MOHANIR\SETTLE\BAZARSETTLEMENT-13931225\BAZARSETTLEMENT\SETTLEMENT SOLUTION 2009\SETTLEMENTPROJECT\RESOURCES\THE CLOSE_2.ICO
E:\MOHANIR\SETTLE\BAZARSETTLEMENT-13931225\BAZARSETTLEMENT\SETTLEMENT SOLUTION 2009\SETTLEMENTPROJECT\RESOURCES\DEFAULT-APPLICATION.ICO
E:\MOHANIR\SETTLE\BAZARSETTLEMENT-13931225\BAZARSETTLEMENT\SETTLEMENT SOLUTION 2009\SETTLEMENTPROJECT\RESOURCES\GLOBE.ICO
E:\MOHANIR\SETTLE\BAZARSETTLEMENT-13931225\BAZARSETTLEMENT\SETTLEMENT SOLUTION 2009\SETTLEMENTPROJECT\RESOURCES\4585.PNG
E:\MOHANIR\SETTLE\BAZARSETTLEMENT-13931225\BAZARSETTLEMENT\SETTLEMENT SOLUTION 2009\SETTLEMENTPROJECT\RESOURCES\7453.PNG
E:\MOHANIR\SETTLE\BAZARSETTLEMENT-13931225\BAZARSETTLEMENT\SETTLEMENT SOLUTION 2009\SETTLEMENTPROJECT\RESOURCES\7224.PNG
E:\MOHANIR\SETTLE\BAZARSETTLEMENT-13931225\BAZARSETTLEMENT\SETTLEMENT SOLUTION 2009\SETTLEMENTPROJECT\RESOURCES\4165.PNG
E:\MOHANIR\SETTLE\BAZARSETTLEMENT-13931225\BAZARSETTLEMENT\SETTLEMENT SOLUTION 2009\SETTLEMENTPROJECT\RESOURCES\ICONTEXTO-MESSAGE-TYPES-ALERT-RED1.ICO
E:\MOHANIR\SETTLE\BAZARSETTLEMENT-13931225\BAZARSETTLEMENT\SETTLEMENT SOLUTION 2009\SETTLEMENTPROJECT\RESOURCES\ICONTEXTO-MESSAGE-TYPES-ERROR-RED1.ICO
E:\MOHANIR\SETTLE\BAZARSETTLEMENT-13931225\BAZARSETTLEMENT\SETTLEMENT SOLUTION 2009\SETTLEMENTPROJECT\RESOURCES\ICONTEXTO-MESSAGE-TYPES-QUESTION-RED1.ICO
E:\MOHANIR\SETTLE\BAZARSETTLEMENT-13931225\BAZARSETTLEMENT\SETTLEMENT SOLUTION 2009\SETTLEMENTPROJECT\RESOURCES\ICONTEXTO-MESSAGE-TYPES-INFO-RED.PNG
E:\MOHANIR\SETTLE\BAZARSETTLEMENT-13931225\BAZARSETTLEMENT\SETTLEMENT SOLUTION 2009\SETTLEMENTPROJECT\RESOURCES\ME4.JPG
E:\MOHANIR\SETTLE\BAZARSETTLEMENT-13931225\BAZARSETTLEMENT\SETTLEMENT SOLUTION 2009\SETTLEMENTPROJECT\RESOURCES\ME5.JPG
C:\WINDOWS\MICROSOFT.NET\FRAMEWORK64\V2.0.50727\CONFIG\SECURITY.CONFIG
C:\WINDOWS\MICROSOFT.NET\FRAMEWORK64\V2.0.50727\CONFIG\ENTERPRISESEC.CONFIG
^E:\MOHANIR\SETTLE\BAZARSETTLEMENT-13931225\BAZARSETTLEMENT\SETTLEMENT SOLUTION 2009\SETTLEMENTPROJECT\FORMS\MANAGEMENTBILL\SELECTEDTIME.RESX
C:\WINDOWS\MICROSOFT.NET\FRAMEWORK64\V2.0.50727\MSCORWKS.DLL
C:\WINDOWS\MICROSOFT.NET\FRAMEWORK64\V4.0.30319\CLR.DLL
C:\PROGRAM FILES (X86)\MICROSOFT SDKS\WINDOWS\V7.0A\BIN\RESGEN.EXE.CONFIG
C:\PROGRAM FILES (X86)\MICROSOFT SDKS\WINDOWS\V7.0A\BIN\RESGEN.EXE
C:\WINDOWS\MICROSOFT.NET\FRAMEWORK64\V2.0.50727\CONFIG\MACHINE.CONFIG
C:\WINDOWS\MICROSOFT.NET\FRAMEWORK64\V2.0.50727\CONFIG\SECURITY.CONFIG
C:\WINDOWS\MICROSOFT.NET\FRAMEWORK64\V2.0.50727\CONFIG\SECURITY.CONFIG.CCH
C:\WINDOWS\MICROSOFT.NET\FRAMEWORK64\V2.0.50727\CONFIG\ENTERPRISESEC.CONFIG
C:\WINDOWS\MICROSOFT.NET\FRAMEWORK64\V2.0.50727\CONFIG\ENTERPRISESEC.CONFIG.CCH
C:\WINDOWS\GLOBALIZATION\SORTING\SORTDEFAULT.NLS
C:\WINDOWS\ASSEMBLY\NATIVEIMAGES_V2.0.50727_64\INDEX5D4.DAT
C:\WINDOWS\SYSTEM32\L_INTL.NLS
C:\WINDOWS\ASSEMBLY\GAC_64\MSCORLIB\2.0.0.0__B77A5C561934E089\SORTTBLS.NLP
C:\WINDOWS\ASSEMBLY\GAC_64\MSCORLIB\2.0.0.0__B77A5C561934E089\SORTKEY.NLP
C:\WINDOWS\ASSEMBLY\PUBPOL56.DAT
E:\MOHANIR\SETTLE\BAZARSETTLEMENT-13931225\BAZARSETTLEMENT\SETTLEMENT SOLUTION 2009\DEVCOMPONENTS.DOTNETBAR2.DLL
E:\MOHANIR\SETTLE\BAZARSETTLEMENT-13931225\BAZARSETTLEMENT\SETTLEMENT SOLUTION 2009\FARSILIBRARY.RESOURCES.DLL
E:\MOHANIR\SETTLE\BAZARSETTLEMENT-13931225\BAZARSETTLEMENT\SETTLEMENT SOLUTION 2009\FARSILIBRARY.UTILS.DLL
E:\MOHANIR\SETTLE\BAZARSETTLEMENT-13931225\BAZARSETTLEMENT\SETTLEMENT SOLUTION 2009\FARSILIBRARY.WIN.DLL
E:\MOHANIR\SETTLE\BAZARSETTLEMENT-13931225\BAZARSETTLEMENT\SETTLEMENT SOLUTION 2009\FLEXCEL.DLL
C:\WINDOWS\SYSTEM32\RSAENH.DLL
C:\PROGRAM FILES (X86)\MICROSOFT VISUAL STUDIO 10.0\VISUAL STUDIO TOOLS FOR OFFICE\PIA\OFFICE12\MICROSOFT.OFFICE.INTEROP.EXCEL.DLL
C:\WINDOWS\MICROSOFT.NET\FRAMEWORK\V2.0.50727\MICROSOFT.VISUALBASIC.COMPATIBILITY.DLL
C:\WINDOWS\MICROSOFT.NET\FRAMEWORK\V2.0.50727\MICROSOFT.VISUALBASIC.DLL
C:\PROGRAM FILES (X86)\REFERENCE ASSEMBLIES\MICROSOFT\VBPOWERPACKS\V10.0\MICROSOFT.VISUALBASIC.POWERPACKS.VS.DLL
E:\MOHANIR\SETTLE\BAZARSETTLEMENT-13931225\BAZARSETTLEMENT\SETTLEMENT SOLUTION 2009\MOHANIR VB CLASSES\BIN\DEBUG\MOHANIRVBCLASSES.DLL
C:\WINDOWS\MICROSOFT.NET\FRAMEWORK\V2.0.50727\MSCORLIB.DLL
E:\MOHANIR\SETTLE\BAZARSETTLEMENT-13931225\BAZARSETTLEMENT\SETTLEMENT SOLUTION 2009\SETTLEMENTPROJECT\BIN\DEBUG\PURECOMPONENTS.TREEVIEWV2.DLL
E:\MOHANIR\SETTLE\BAZARSETTLEMENT-13931225\BAZARSETTLEMENT\RPN CALENDAR\RPN CALENDAR\BIN\DEBUG\RPN CALENDAR.DLL
E:\MOHANIR\SETTLE\BAZARSETTLEMENT-13931225\BAZARSETTLEMENT\SETTLEMENTCONTROLLIBRARIES\OBJ\DEBUG\SETTLEMENTCONTROLLIBRARIES.DLL
C:\PROGRAM FILES (X86)\MICROSOFT VISUAL STUDIO 10.0\VISUAL STUDIO TOOLS FOR OFFICE\PIA\COMMON\STDOLE.DLL
C:\PROGRAM FILES (X86)\REFERENCE ASSEMBLIES\MICROSOFT\FRAMEWORK\V3.5\SYSTEM.CORE.DLL
C:\PROGRAM FILES (X86)\REFERENCE ASSEMBLIES\MICROSOFT\FRAMEWORK\V3.5\SYSTEM.DATA.DATASETEXTENSIONS.DLL
C:\WINDOWS\MICROSOFT.NET\FRAMEWORK\V2.0.50727\SYSTEM.DATA.DLL
C:\PROGRAM FILES (X86)\REFERENCE ASSEMBLIES\MICROSOFT\FRAMEWORK\V3.5\SYSTEM.DATA.LINQ.DLL
C:\WINDOWS\MICROSOFT.NET\FRAMEWORK\V2.0.50727\SYSTEM.DESIGN.DLL
C:\WINDOWS\MICROSOFT.NET\FRAMEWORK\V2.0.50727\SYSTEM.DLL
C:\WINDOWS\MICROSOFT.NET\FRAMEWORK\V2.0.50727\SYSTEM.DRAWING.DESIGN.DLL
C:\WINDOWS\MICROSOFT.NET\FRAMEWORK\V2.0.50727\SYSTEM.DRAWING.DLL
C:\WINDOWS\MICROSOFT.NET\FRAMEWORK\V2.0.50727\SYSTEM.WEB.DLL
C:\WINDOWS\MICROSOFT.NET\FRAMEWORK\V2.0.50727\SYSTEM.WINDOWS.FORMS.DLL
C:\WINDOWS\MICROSOFT.NET\FRAMEWORK\V2.0.50727\SYSTEM.XML.DLL
^E:\MOHANIR\SETTLE\BAZARSETTLEMENT-13931225\BAZARSETTLEMENT\SETTLEMENT SOLUTION 2009\SETTLEMENTPROJECT\FORMS\MANAGEMENTBILL\BILLSELECTD.RESX
C:\WINDOWS\MICROSOFT.NET\FRAMEWORK64\V2.0.50727\MSCORWKS.DLL
C:\WINDOWS\MICROSOFT.NET\FRAMEWORK64\V4.0.30319\CLR.DLL
C:\PROGRAM FILES (X86)\MICROSOFT SDKS\WINDOWS\V7.0A\BIN\RESGEN.EXE.CONFIG
C:\PROGRAM FILES (X86)\MICROSOFT SDKS\WINDOWS\V7.0A\BIN\RESGEN.EXE
C:\WINDOWS\MICROSOFT.NET\FRAMEWORK64\V2.0.50727\CONFIG\MACHINE.CONFIG
C:\WINDOWS\MICROSOFT.NET\FRAMEWORK64\V2.0.50727\CONFIG\SECURITY.CONFIG
C:\WINDOWS\MICROSOFT.NET\FRAMEWORK64\V2.0.50727\CONFIG\SECURITY.CONFIG.CCH
C:\WINDOWS\MICROSOFT.NET\FRAMEWORK64\V2.0.50727\CONFIG\ENTERPRISESEC.CONFIG
C:\WINDOWS\MICROSOFT.NET\FRAMEWORK64\V2.0.50727\CONFIG\ENTERPRISESEC.CONFIG.CCH
C:\WINDOWS\GLOBALIZATION\SORTING\SORTDEFAULT.NLS
C:\WINDOWS\ASSEMBLY\NATIVEIMAGES_V2.0.50727_64\INDEX5D4.DAT
C:\WINDOWS\SYSTEM32\L_INTL.NLS
C:\WINDOWS\ASSEMBLY\GAC_64\MSCORLIB\2.0.0.0__B77A5C561934E089\SORTTBLS.NLP
C:\WINDOWS\ASSEMBLY\GAC_64\MSCORLIB\2.0.0.0__B77A5C561934E089\SORTKEY.NLP
C:\WINDOWS\ASSEMBLY\PUBPOL56.DAT
E:\MOHANIR\SETTLE\BAZARSETTLEMENT-13931225\BAZARSETTLEMENT\SETTLEMENT SOLUTION 2009\DEVCOMPONENTS.DOTNETBAR2.DLL
E:\MOHANIR\SETTLE\BAZARSETTLEMENT-13931225\BAZARSETTLEMENT\SETTLEMENT SOLUTION 2009\FARSILIBRARY.RESOURCES.DLL
E:\MOHANIR\SETTLE\BAZARSETTLEMENT-13931225\BAZARSETTLEMENT\SETTLEMENT SOLUTION 2009\FARSILIBRARY.UTILS.DLL
E:\MOHANIR\SETTLE\BAZARSETTLEMENT-13931225\BAZARSETTLEMENT\SETTLEMENT SOLUTION 2009\FARSILIBRARY.WIN.DLL
E:\MOHANIR\SETTLE\BAZARSETTLEMENT-13931225\BAZARSETTLEMENT\SETTLEMENT SOLUTION 2009\FLEXCEL.DLL
C:\WINDOWS\SYSTEM32\RSAENH.DLL
C:\PROGRAM FILES (X86)\MICROSOFT VISUAL STUDIO 10.0\VISUAL STUDIO TOOLS FOR OFFICE\PIA\OFFICE12\MICROSOFT.OFFICE.INTEROP.EXCEL.DLL
C:\WINDOWS\MICROSOFT.NET\FRAMEWORK\V2.0.50727\MICROSOFT.VISUALBASIC.COMPATIBILITY.DLL
C:\WINDOWS\MICROSOFT.NET\FRAMEWORK\V2.0.50727\MICROSOFT.VISUALBASIC.DLL
C:\PROGRAM FILES (X86)\REFERENCE ASSEMBLIES\MICROSOFT\VBPOWERPACKS\V10.0\MICROSOFT.VISUALBASIC.POWERPACKS.VS.DLL
E:\MOHANIR\SETTLE\BAZARSETTLEMENT-13931225\BAZARSETTLEMENT\SETTLEMENT SOLUTION 2009\MOHANIR VB CLASSES\BIN\DEBUG\MOHANIRVBCLASSES.DLL
C:\WINDOWS\MICROSOFT.NET\FRAMEWORK\V2.0.50727\MSCORLIB.DLL
E:\MOHANIR\SETTLE\BAZARSETTLEMENT-13931225\BAZARSETTLEMENT\SETTLEMENT SOLUTION 2009\SETTLEMENTPROJECT\BIN\DEBUG\PURECOMPONENTS.TREEVIEWV2.DLL
E:\MOHANIR\SETTLE\BAZARSETTLEMENT-13931225\BAZARSETTLEMENT\RPN CALENDAR\RPN CALENDAR\BIN\DEBUG\RPN CALENDAR.DLL
E:\MOHANIR\SETTLE\BAZARSETTLEMENT-13931225\BAZARSETTLEMENT\SETTLEMENTCONTROLLIBRARIES\OBJ\DEBUG\SETTLEMENTCONTROLLIBRARIES.DLL
C:\PROGRAM FILES (X86)\MICROSOFT VISUAL STUDIO 10.0\VISUAL STUDIO TOOLS FOR OFFICE\PIA\COMMON\STDOLE.DLL
C:\PROGRAM FILES (X86)\REFERENCE ASSEMBLIES\MICROSOFT\FRAMEWORK\V3.5\SYSTEM.CORE.DLL
C:\PROGRAM FILES (X86)\REFERENCE ASSEMBLIES\MICROSOFT\FRAMEWORK\V3.5\SYSTEM.DATA.DATASETEXTENSIONS.DLL
C:\WINDOWS\MICROSOFT.NET\FRAMEWORK\V2.0.50727\SYSTEM.DATA.DLL
C:\PROGRAM FILES (X86)\REFERENCE ASSEMBLIES\MICROSOFT\FRAMEWORK\V3.5\SYSTEM.DATA.LINQ.DLL
C:\WINDOWS\MICROSOFT.NET\FRAMEWORK\V2.0.50727\SYSTEM.DESIGN.DLL
C:\WINDOWS\MICROSOFT.NET\FRAMEWORK\V2.0.50727\SYSTEM.DLL
C:\WINDOWS\MICROSOFT.NET\FRAMEWORK\V2.0.50727\SYSTEM.DRAWING.DESIGN.DLL
C:\WINDOWS\MICROSOFT.NET\FRAMEWORK\V2.0.50727\SYSTEM.DRAWING.DLL
C:\WINDOWS\MICROSOFT.NET\FRAMEWORK\V2.0.50727\SYSTEM.WEB.DLL
C:\WINDOWS\MICROSOFT.NET\FRAMEWORK\V2.0.50727\SYSTEM.WINDOWS.FORMS.DLL
C:\WINDOWS\MICROSOFT.NET\FRAMEWORK\V2.0.50727\SYSTEM.XML.DLL
